slide
…
wbstats package (WordBank)

rdbnomics package (DBnomics)

MarcellGranat/arcananum (Arcanum, python)

polygon.io (market data, raw)

Eurostat

eurostat::search_eurostat("price") |> 
  select(title, code, data.start, data.end) |>
  print(n = 10)
#> # A tibble: 130 × 4
#>    title                                               code  data.start data.end
#>    <chr>                                               <chr> <chr>      <chr>   
#>  1 Gross domestic product (GDP) at current market pri… nama… 2000       2022    
#>  2 Gross domestic product (GDP) at current market pri… nama… 2000       2022    
#>  3 Gross value added at basic prices by NUTS 3 region  nama… 1995       2022    
#>  4 Gross domestic product (GDP) at current market pri… met_… 2000       2022    
#>  5 Gross value added at basic prices by metropolitan … met_… 1995       2022    
#>  6 Gross domestic product (GDP) at current market pri… urt_… 2000       2022    
#>  7 Gross value added at basic prices by other typolog… urt_… 1995       2022    
#>  8 Gross domestic product (GDP) at current market pri… nama… 2000       2022    
#>  9 Gross value added at basic prices by NUTS 3 region  nama… 1995       2022    
#> 10 Gross domestic product (GDP) at current market pri… urt_… 2000       2022    
#> # ℹ 120 more rows

Eurostat

# CPI from Eurostat
cpi <- eurostat::get_eurostat("enps_cpi")
cpi
#> # A tibble: 284 × 5
#>    freq  unit      geo   TIME_PERIOD values
#>    <chr> <chr>     <chr> <date>       <dbl>
#>  1 A     INX_A_AVG DZ    2005-01-01    64.6
#>  2 A     INX_A_AVG DZ    2006-01-01    66.1
#>  3 A     INX_A_AVG DZ    2007-01-01    68.5
#>  4 A     INX_A_AVG DZ    2008-01-01    71.8
#>  5 A     INX_A_AVG DZ    2009-01-01    75.9
#>  6 A     INX_A_AVG DZ    2010-01-01    78.9
#>  7 A     INX_A_AVG DZ    2011-01-01    82.5
#>  8 A     INX_A_AVG DZ    2012-01-01    89.8
#>  9 A     INX_A_AVG DZ    2013-01-01    92.7
#> 10 A     INX_A_AVG DZ    2014-01-01    95.4
#> # ℹ 274 more rows

wbstats

# Search indicator in the WorldBank's Database
wbstats::wb_indicators()
#> # A tibble: 23,578 × 8
#>    indicator_id       indicator unit  indicator_desc source_org topics source_id
#>    <chr>              <chr>     <lgl> <chr>          <chr>      <list>     <dbl>
#>  1 1.0.HCount.1.90usd Poverty … NA    The poverty h… LAC Equit… <df>          37
#>  2 1.0.HCount.2.5usd  Poverty … NA    The poverty h… LAC Equit… <df>          37
#>  3 1.0.HCount.Mid10t… Middle C… NA    The poverty h… LAC Equit… <df>          37
#>  4 1.0.HCount.Ofcl    Official… NA    The poverty h… LAC Equit… <df>          37
#>  5 1.0.HCount.Poor4u… Poverty … NA    The poverty h… LAC Equit… <df>          37
#>  6 1.0.HCount.Vul4to… Vulnerab… NA    The poverty h… LAC Equit… <df>          37
#>  7 1.0.PGap.1.90usd   Poverty … NA    The poverty g… LAC Equit… <df>          37
#>  8 1.0.PGap.2.5usd    Poverty … NA    The poverty g… LAC Equit… <df>          37
#>  9 1.0.PGap.Poor4uds  Poverty … NA    The poverty g… LAC Equit… <df>          37
#> 10 1.0.PSev.1.90usd   Poverty … NA    The poverty s… LAC Equit… <df>          37
#> # ℹ 23,568 more rows
#> # ℹ 1 more variable: source <chr>
…
